[
  {
    "id": 1081,
    "question": "Where are the online repositories configured on a Debian/Ubuntu Machine",
    "description": null,
    "answers": {
      "answer_a": "/etc/apt/sources.list",
      "answer_b": "/etc/apt/yum.repos",
      "answer_c": "/etc/fstab",
      "answer_d": "/etc/apt/repos",
      "answer_e": null,
      "answer_f": null
    },
    "multiple_correct_answers": "false",
    "correct_answers": {
      "answer_a_correct": "true",
      "answer_b_correct": "false",
      "answer_c_correct": "false",
      "answer_d_correct": "false",
      "answer_e_correct": "false",
      "answer_f_correct": "false"
    },
    "correct_answer": null,
    "explanation": null,
    "tip": null,
    "tags": [
      {
        "name": "Linux"
      }
    ],
    "category": "Linux",
    "difficulty": "Easy"
  },
  {
    "id": 744,
    "question": "How to mark a node called my-node as schedulable in Kubernetes?",
    "description": null,
    "answers": {
      "answer_a": "kubectl schedulable my-node",
      "answer_b": "kubectl up my-node",
      "answer_c": "kubectl available my-node",
      "answer_d": "kubectl uncordon my-node",
      "answer_e": null,
      "answer_f": null
    },
    "multiple_correct_answers": "false",
    "correct_answers": {
      "answer_a_correct": "false",
      "answer_b_correct": "false",
      "answer_c_correct": "false",
      "answer_d_correct": "true",
      "answer_e_correct": "false",
      "answer_f_correct": "false"
    },
    "correct_answer": "answer_a",
    "explanation": null,
    "tip": null,
    "tags": [
      {
        "name": "Kubernetes"
      }
    ],
    "category": "Linux",
    "difficulty": "Medium"
  },
  {
    "id": 753,
    "question": "How do you write the contents of 3 files into a single file?",
    "description": null,
    "answers": {
      "answer_a": "cat file1 file2 file3 > file",
      "answer_b": "cat file1 > file && cat file2 >> file && cat file3 >> file",
      "answer_c": "cat file1 >> file; cat file2 >> file; cat file3 >> file",
      "answer_d": "cat file1 > file && cat file2 > file && cat file3 > file",
      "answer_e": "cat file1 > file || cat file2 > file || cat file3 > file",
      "answer_f": "cat file1 > file; cat file2 > file; cat file3 > file"
    },
    "multiple_correct_answers": "true",
    "correct_answers": {
      "answer_a_correct": "true",
      "answer_b_correct": "true",
      "answer_c_correct": "true",
      "answer_d_correct": "false",
      "answer_e_correct": "false",
      "answer_f_correct": "false"
    },
    "correct_answer": "answer_a",
    "explanation": null,
    "tip": null,
    "tags": [
      {
        "name": "BASH"
      },
      {
        "name": "Linux"
      }
    ],
    "category": "Linux",
    "difficulty": "Medium"
  },
  {
    "id": 1076,
    "question": "If you execute the command `umask 0002`, what will happen",
    "description": null,
    "answers": {
      "answer_a": "Next time when we create a file using the chmod command, the permissions of will be 664",
      "answer_b": "Next time when we create a file using the chmod command, the permissions of will be 666",
      "answer_c": "Next time when we create a file using the chmod command, the permissions of will be 002",
      "answer_d": "None of the mentioned",
      "answer_e": null,
      "answer_f": null
    },
    "multiple_correct_answers": "false",
    "correct_answers": {
      "answer_a_correct": "true",
      "answer_b_correct": "false",
      "answer_c_correct": "false",
      "answer_d_correct": "false",
      "answer_e_correct": "false",
      "answer_f_correct": "false"
    },
    "correct_answer": null,
    "explanation": null,
    "tip": null,
    "tags": [
      {
        "name": "Linux"
      }
    ],
    "category": "Linux",
    "difficulty": "Medium"
  },
  {
    "id": 1082,
    "question": "If you wish to have something mounted when the server is booted in which file would you need to add it:",
    "description": null,
    "answers": {
      "answer_a": "/etc/fstab",
      "answer_b": "/etc/boot",
      "answer_c": "/etc/grub.conf",
      "answer_d": "/etc/boot.conf",
      "answer_e": null,
      "answer_f": null
    },
    "multiple_correct_answers": "false",
    "correct_answers": {
      "answer_a_correct": "true",
      "answer_b_correct": "false",
      "answer_c_correct": "false",
      "answer_d_correct": "false",
      "answer_e_correct": "false",
      "answer_f_correct": "false"
    },
    "correct_answer": null,
    "explanation": null,
    "tip": null,
    "tags": [
      {
        "name": "Linux"
      }
    ],
    "category": "Linux",
    "difficulty": "Easy"
  },
  {
    "id": 49,
    "question": "Which of the following key combinations allows to terminate the current process in Linux shell?",
    "description": null,
    "answers": {
      "answer_a": "Ctrl + C",
      "answer_b": "Ctrl + Z",
      "answer_c": "Ctrl + A",
      "answer_d": "Ctrl + L",
      "answer_e": null,
      "answer_f": null
    },
    "multiple_correct_answers": "false",
    "correct_answers": {
      "answer_a_correct": "true",
      "answer_b_correct": "false",
      "answer_c_correct": "false",
      "answer_d_correct": "false",
      "answer_e_correct": "false",
      "answer_f_correct": "false"
    },
    "correct_answer": "answer_a",
    "explanation": null,
    "tip": null,
    "tags": [
      {
        "name": "Linux"
      }
    ],
    "category": "Linux",
    "difficulty": "Easy"
  },
  {
    "id": 718,
    "question": "Which command is used to create a Kubernetes service?",
    "description": null,
    "answers": {
      "answer_a": "kubectl set service",
      "answer_b": "kubectl create service",
      "answer_c": "kubectl deploy service",
      "answer_d": "kubectl expose",
      "answer_e": null,
      "answer_f": null
    },
    "multiple_correct_answers": "false",
    "correct_answers": {
      "answer_a_correct": "false",
      "answer_b_correct": "false",
      "answer_c_correct": "false",
      "answer_d_correct": "true",
      "answer_e_correct": "false",
      "answer_f_correct": "false"
    },
    "correct_answer": "answer_a",
    "explanation": null,
    "tip": null,
    "tags": [
      {
        "name": "Kubernetes"
      }
    ],
    "category": "Linux",
    "difficulty": "Easy"
  },
  {
    "id": 701,
    "question": "How can you count for a particular pattern occurrences in a file?",
    "description": null,
    "answers": {
      "answer_a": "grep −c “pattern” <file>",
      "answer_b": "grep −k “pattern” <file>",
      "answer_c": "cat <file> | wc -k “pattern”",
      "answer_d": "cat <file> | wc -l “pattern”",
      "answer_e": null,
      "answer_f": null
    },
    "multiple_correct_answers": "false",
    "correct_answers": {
      "answer_a_correct": "true",
      "answer_b_correct": "false",
      "answer_c_correct": "false",
      "answer_d_correct": "false",
      "answer_e_correct": "false",
      "answer_f_correct": "false"
    },
    "correct_answer": null,
    "explanation": null,
    "tip": null,
    "tags": [
      {
        "name": "BASH"
      }
    ],
    "category": "Linux",
    "difficulty": "Medium"
  },
  {
    "id": 665,
    "question": "Choose the correct usage of ‘cd’ to move into the parent directory.",
    "description": null,
    "answers": {
      "answer_a": "cd",
      "answer_b": "cd ..",
      "answer_c": "cd .",
      "answer_d": "cd/",
      "answer_e": "None of the above",
      "answer_f": "cd.."
    },
    "multiple_correct_answers": "false",
    "correct_answers": {
      "answer_a_correct": "false",
      "answer_b_correct": "true",
      "answer_c_correct": "false",
      "answer_d_correct": "false",
      "answer_e_correct": "false",
      "answer_f_correct": "false"
    },
    "correct_answer": "answer_a",
    "explanation": null,
    "tip": null,
    "tags": [
      {
        "name": "BASH"
      }
    ],
    "category": "Linux",
    "difficulty": "Easy"
  },
  {
    "id": 652,
    "question": "What is the She-bang line in a shell script",
    "description": null,
    "answers": {
      "answer_a": "#",
      "answer_b": "#!",
      "answer_c": "!#",
      "answer_d": "None of the above",
      "answer_e": null,
      "answer_f": null
    },
    "multiple_correct_answers": "false",
    "correct_answers": {
      "answer_a_correct": "false",
      "answer_b_correct": "true",
      "answer_c_correct": "false",
      "answer_d_correct": "false",
      "answer_e_correct": "false",
      "answer_f_correct": "false"
    },
    "correct_answer": "answer_a",
    "explanation": null,
    "tip": null,
    "tags": [
      {
        "name": "BASH"
      }
    ],
    "category": "Linux",
    "difficulty": "Easy"
  },
  {
    "id": 647,
    "question": "Which command can be used to count characters in a text file?",
    "description": null,
    "answers": {
      "answer_a": "ccount",
      "answer_b": "fsize",
      "answer_c": "count",
      "answer_d": "wc",
      "answer_e": null,
      "answer_f": null
    },
    "multiple_correct_answers": "false",
    "correct_answers": {
      "answer_a_correct": "false",
      "answer_b_correct": "true",
      "answer_c_correct": "false",
      "answer_d_correct": "false",
      "answer_e_correct": "false",
      "answer_f_correct": "false"
    },
    "correct_answer": "answer_a",
    "explanation": null,
    "tip": null,
    "tags": [
      {
        "name": "BASH"
      }
    ],
    "category": "Linux",
    "difficulty": "Easy"
  },
  {
    "id": 15,
    "question": "Which command to use for complete details of a command on the shell?",
    "description": null,
    "answers": {
      "answer_a": "help",
      "answer_b": "man",
      "answer_c": "?",
      "answer_d": "info",
      "answer_e": null,
      "answer_f": null
    },
    "multiple_correct_answers": "false",
    "correct_answers": {
      "answer_a_correct": "false",
      "answer_b_correct": "true",
      "answer_c_correct": "false",
      "answer_d_correct": "false",
      "answer_e_correct": "false",
      "answer_f_correct": "false"
    },
    "correct_answer": "answer_b",
    "explanation": null,
    "tip": null,
    "tags": [
      {
        "name": "Linux"
      }
    ],
    "category": "Linux",
    "difficulty": "Easy"
  },
  {
    "id": 688,
    "question": "What is an internal command?",
    "description": null,
    "answers": {
      "answer_a": "Shell built in commands are called as internal commands.",
      "answer_b": "Shell commands which are executed on the local machine are called internal commands.",
      "answer_c": "Every command which comes with the default installation of Linux is called internal command with some small exceptions like really old commands.",
      "answer_d": "Every command which has been developed by the new generation of Linux is considered an internal command.",
      "answer_e": null,
      "answer_f": null
    },
    "multiple_correct_answers": "false",
    "correct_answers": {
      "answer_a_correct": "true",
      "answer_b_correct": "false",
      "answer_c_correct": "false",
      "answer_d_correct": "false",
      "answer_e_correct": "false",
      "answer_f_correct": "false"
    },
    "correct_answer": "answer_a",
    "explanation": null,
    "tip": null,
    "tags": [
      {
        "name": "BASH"
      },
      {
        "name": "Linux"
      }
    ],
    "category": "Linux",
    "difficulty": "Medium"
  },
  {
    "id": 699,
    "question": "How are devices represented in UNIX/Linux?",
    "description": null,
    "answers": {
      "answer_a": "For UNIX/Linux every device is a file and are typically located in the directory /dev.",
      "answer_b": "For UNIX/Linux every device is a block and are typically located in the directory /dev.",
      "answer_c": "For UNIX/Linux every device is a file and are typically located in the directory /proc.",
      "answer_d": "For UNIX/Linux every device is a block and are typically located in the directory /proc.",
      "answer_e": null,
      "answer_f": null
    },
    "multiple_correct_answers": "false",
    "correct_answers": {
      "answer_a_correct": "true",
      "answer_b_correct": "false",
      "answer_c_correct": "false",
      "answer_d_correct": "false",
      "answer_e_correct": "false",
      "answer_f_correct": "false"
    },
    "correct_answer": "answer_a",
    "explanation": null,
    "tip": null,
    "tags": [
      {
        "name": "BASH"
      },
      {
        "name": "Linux"
      }
    ],
    "category": "Linux",
    "difficulty": "Medium"
  },
  {
    "id": 11,
    "question": "What does GNU stands for?",
    "description": null,
    "answers": {
      "answer_a": "Geek Needed Unix",
      "answer_b": "General Unix",
      "answer_c": "Gnu’s not Unix",
      "answer_d": "Global Unix",
      "answer_e": null,
      "answer_f": null
    },
    "multiple_correct_answers": "false",
    "correct_answers": {
      "answer_a_correct": "false",
      "answer_b_correct": "false",
      "answer_c_correct": "true",
      "answer_d_correct": "false",
      "answer_e_correct": "false",
      "answer_f_correct": "false"
    },
    "correct_answer": "answer_c",
    "explanation": null,
    "tip": null,
    "tags": [
      {
        "name": "Linux"
      }
    ],
    "category": "Linux",
    "difficulty": "Easy"
  },
  {
    "id": 1,
    "question": "How to delete a directory in Linux?",
    "description": "The rmdir commands deletes only empty directories. To delete a folder recursively use the rm -rf command.",
    "answers": {
      "answer_a": "ls",
      "answer_b": "delete",
      "answer_c": "remove",
      "answer_d": "rmdir",
      "answer_e": null,
      "answer_f": null
    },
    "multiple_correct_answers": "false",
    "correct_answers": {
      "answer_a_correct": "false",
      "answer_b_correct": "false",
      "answer_c_correct": "false",
      "answer_d_correct": "true",
      "answer_e_correct": "false",
      "answer_f_correct": "false"
    },
    "correct_answer": "answer_d",
    "explanation": "rmdir deletes an empty directory",
    "tip": null,
    "tags": [],
    "category": "Linux",
    "difficulty": "Easy"
  },
  {
    "id": 38,
    "question": "To inspect the the boot process of a Linux system, which command can be used?",
    "description": null,
    "answers": {
      "answer_a": "boot",
      "answer_b": "dmesg",
      "answer_c": "cat /var/log/start",
      "answer_d": "cat /var/log/boot.txt",
      "answer_e": null,
      "answer_f": null
    },
    "multiple_correct_answers": "false",
    "correct_answers": {
      "answer_a_correct": "false",
      "answer_b_correct": "true",
      "answer_c_correct": "false",
      "answer_d_correct": "false",
      "answer_e_correct": "false",
      "answer_f_correct": "false"
    },
    "correct_answer": "answer_b",
    "explanation": null,
    "tip": null,
    "tags": [
      {
        "name": "Linux"
      }
    ],
    "category": "Linux",
    "difficulty": "Medium"
  },
  {
    "id": 754,
    "question": "Which command will duplicate each line in a file?",
    "description": null,
    "answers": {
      "answer_a": "sed 'p' < filename",
      "answer_b": "sed 'd' < filename",
      "answer_c": "cp 'p' < filename",
      "answer_d": "cp 'd' < filename",
      "answer_e": "cat 'p' < filename",
      "answer_f": "cat 'd' < filename"
    },
    "multiple_correct_answers": "false",
    "correct_answers": {
      "answer_a_correct": "true",
      "answer_b_correct": "false",
      "answer_c_correct": "false",
      "answer_d_correct": "false",
      "answer_e_correct": "false",
      "answer_f_correct": "false"
    },
    "correct_answer": "answer_a",
    "explanation": null,
    "tip": null,
    "tags": [
      {
        "name": "BASH"
      },
      {
        "name": "Linux"
      }
    ],
    "category": "Linux",
    "difficulty": "Hard"
  },
  {
    "id": 651,
    "question": "What is the option to create hard link for a directory?",
    "description": null,
    "answers": {
      "answer_a": "-s",
      "answer_b": "-l",
      "answer_c": "-f",
      "answer_d": "None of the above",
      "answer_e": null,
      "answer_f": null
    },
    "multiple_correct_answers": "false",
    "correct_answers": {
      "answer_a_correct": "false",
      "answer_b_correct": "false",
      "answer_c_correct": "false",
      "answer_d_correct": "true",
      "answer_e_correct": "false",
      "answer_f_correct": "false"
    },
    "correct_answer": "answer_a",
    "explanation": null,
    "tip": null,
    "tags": [
      {
        "name": "BASH"
      }
    ],
    "category": "Linux",
    "difficulty": "Medium"
  },
  {
    "id": 1068,
    "question": "What will happen If you run the command \"init 6\" in your terminal",
    "description": null,
    "answers": {
      "answer_a": "Reboot the system",
      "answer_b": "Shut down the system",
      "answer_c": "Enter single user mode",
      "answer_d": "Start the system without a display manager (GUI)",
      "answer_e": null,
      "answer_f": null
    },
    "multiple_correct_answers": "false",
    "correct_answers": {
      "answer_a_correct": "true",
      "answer_b_correct": "false",
      "answer_c_correct": "false",
      "answer_d_correct": "false",
      "answer_e_correct": "false",
      "answer_f_correct": "false"
    },
    "correct_answer": null,
    "explanation": null,
    "tip": null,
    "tags": [
      {
        "name": "Linux"
      },
      {
        "name": "BASH"
      }
    ],
    "category": "Linux",
    "difficulty": "Medium"
  }
]
